%YAML 1.1
%TAG !u! tag:unity3d.com,2011:
--- !u!29 &1
OcclusionCullingSettings:
  m_ObjectHideFlags: 0
  serializedVersion: 2
  m_OcclusionBakeSettings:
    smallestOccluder: 5
    smallestHole: 0.25
    backfaceThreshold: 100
  m_SceneGUID: 00000000000000000000000000000000
  m_OcclusionCullingData: {fileID: 0}
--- !u!104 &2
RenderSettings:
  m_ObjectHideFlags: 0
  serializedVersion: 8
  m_Fog: 0
  m_FogColor: {r: 0.5, g: 0.5, b: 0.5, a: 1}
  m_FogMode: 3
  m_FogDensity: 0.01
  m_LinearFogStart: 0
  m_LinearFogEnd: 300
  m_AmbientSkyColor: {r: 0.212, g: 0.227, b: 0.259, a: 1}
  m_AmbientEquatorColor: {r: 0.114, g: 0.125, b: 0.133, a: 1}
  m_AmbientGroundColor: {r: 0.047, g: 0.043, b: 0.035, a: 1}
  m_AmbientIntensity: 1
  m_AmbientMode: 0
  m_SubtractiveShadowColor: {r: 0.42, g: 0.478, b: 0.627, a: 1}
  m_SkyboxMaterial: {fileID: 10304, guid: 0000000000000000f000000000000000, type: 0}
  m_HaloStrength: 0.5
  m_FlareStrength: 1
  m_FlareFadeSpeed: 3
  m_HaloTexture: {fileID: 0}
  m_SpotCookie: {fileID: 10001, guid: 0000000000000000e000000000000000, type: 0}
  m_DefaultReflectionMode: 0
  m_DefaultReflectionResolution: 128
  m_ReflectionBounces: 1
  m_ReflectionIntensity: 1
  m_CustomReflection: {fileID: 0}
  m_Sun: {fileID: 0}
  m_IndirectSpecularColor: {r: 0.44657874, g: 0.49641258, b: 0.5748172, a: 1}
--- !u!157 &3
LightmapSettings:
  m_ObjectHideFlags: 0
  serializedVersion: 11
  m_GIWorkflowMode: 0
  m_GISettings:
    serializedVersion: 2
    m_BounceScale: 1
    m_IndirectOutputScale: 1
    m_AlbedoBoost: 1
    m_TemporalCoherenceThreshold: 1
    m_EnvironmentLightingMode: 0
    m_EnableBakedLightmaps: 1
    m_EnableRealtimeLightmaps: 1
  m_LightmapEditorSettings:
    serializedVersion: 9
    m_Resolution: 2
    m_BakeResolution: 40
    m_TextureWidth: 1024
    m_TextureHeight: 1024
    m_AO: 0
    m_AOMaxDistance: 1
    m_CompAOExponent: 1
    m_CompAOExponentDirect: 0
    m_Padding: 2
    m_LightmapParameters: {fileID: 0}
    m_LightmapsBakeMode: 1
    m_TextureCompression: 1
    m_FinalGather: 0
    m_FinalGatherFiltering: 1
    m_FinalGatherRayCount: 256
    m_ReflectionCompression: 2
    m_MixedBakeMode: 2
    m_BakeBackend: 0
    m_PVRSampling: 1
    m_PVRDirectSampleCount: 32
    m_PVRSampleCount: 500
    m_PVRBounces: 2
    m_PVRFilterTypeDirect: 0
    m_PVRFilterTypeIndirect: 0
    m_PVRFilterTypeAO: 0
    m_PVRFilteringMode: 1
    m_PVRCulling: 1
    m_PVRFilteringGaussRadiusDirect: 1
    m_PVRFilteringGaussRadiusIndirect: 5
    m_PVRFilteringGaussRadiusAO: 2
    m_PVRFilteringAtrousPositionSigmaDirect: 0.5
    m_PVRFilteringAtrousPositionSigmaIndirect: 2
    m_PVRFilteringAtrousPositionSigmaAO: 1
    m_ShowResolutionOverlay: 1
  m_LightingDataAsset: {fileID: 0}
  m_UseShadowmask: 1
--- !u!196 &4
NavMeshSettings:
  serializedVersion: 2
  m_ObjectHideFlags: 0
  m_BuildSettings:
    serializedVersion: 2
    agentTypeID: 0
    agentRadius: 0.5
    agentHeight: 2
    agentSlope: 45
    agentClimb: 0.4
    ledgeDropHeight: 0
    maxJumpAcrossDistance: 0
    minRegionArea: 2
    manualCellSize: 0
    cellSize: 0.16666667
    manualTileSize: 0
    tileSize: 256
    accuratePlacement: 0
    debug:
      m_Flags: 0
  m_NavMeshData: {fileID: 0}
--- !u!1 &311559205
GameObject:
  m_ObjectHideFlags: 0
  m_PrefabParentObject: {fileID: 0}
  m_PrefabInternal: {fileID: 0}
  serializedVersion: 5
  m_Component:
  - component: {fileID: 311559207}
  - component: {fileID: 311559206}
  m_Layer: 0
  m_Name: Directional Light
  m_TagString: Untagged
  m_Icon: {fileID: 0}
  m_NavMeshLayer: 0
  m_StaticEditorFlags: 0
  m_IsActive: 1
--- !u!108 &311559206
Light:
  m_ObjectHideFlags: 0
  m_PrefabParentObject: {fileID: 0}
  m_PrefabInternal: {fileID: 0}
  m_GameObject: {fileID: 311559205}
  m_Enabled: 1
  serializedVersion: 8
  m_Type: 1
  m_Color: {r: 1, g: 0.95686275, b: 0.8392157, a: 1}
  m_Intensity: 1
  m_Range: 10
  m_SpotAngle: 30
  m_CookieSize: 10
  m_Shadows:
    m_Type: 2
    m_Resolution: -1
    m_CustomResolution: -1
    m_Strength: 1
    m_Bias: 0.05
    m_NormalBias: 0.4
    m_NearPlane: 0.2
  m_Cookie: {fileID: 0}
  m_DrawHalo: 0
  m_Flare: {fileID: 0}
  m_RenderMode: 0
  m_CullingMask:
    serializedVersion: 2
    m_Bits: 4294967295
  m_Lightmapping: 4
  m_AreaSize: {x: 1, y: 1}
  m_BounceIntensity: 1
  m_ColorTemperature: 6570
  m_UseColorTemperature: 0
  m_ShadowRadius: 0
  m_ShadowAngle: 0
--- !u!4 &311559207
Transform:
  m_ObjectHideFlags: 0
  m_PrefabParentObject: {fileID: 0}
  m_PrefabInternal: {fileID: 0}
  m_GameObject: {fileID: 311559205}
  m_LocalRotation: {x: 0.40821788, y: -0.23456968, z: 0.10938163, w: 0.8754261}
  m_LocalPosition: {x: 0, y: 3, z: 0}
  m_LocalScale: {x: 1, y: 1, z: 1}
  m_Children: []
  m_Father: {fileID: 0}
  m_RootOrder: 1
  m_LocalEulerAnglesHint: {x: 50, y: -30, z: 0}
--- !u!1001 &351516707
Prefab:
  m_ObjectHideFlags: 0
  serializedVersion: 2
  m_Modification:
    m_TransformParent: {fileID: 2089257679}
    m_Modifications:
    - target: {fileID: 4370666499921430, guid: 72c6824eaa143604aa7bca7bee6fd485, type: 2}
      propertyPath: m_LocalPosition.x
      value: 0
      objectReference: {fileID: 0}
    - target: {fileID: 4370666499921430, guid: 72c6824eaa143604aa7bca7bee6fd485, type: 2}
      propertyPath: m_LocalPosition.y
      value: 0
      objectReference: {fileID: 0}
    - target: {fileID: 4370666499921430, guid: 72c6824eaa143604aa7bca7bee6fd485, type: 2}
      propertyPath: m_LocalPosition.z
      value: 1.5
      objectReference: {fileID: 0}
    - target: {fileID: 4370666499921430, guid: 72c6824eaa143604aa7bca7bee6fd485, type: 2}
      propertyPath: m_LocalRotation.x
      value: -0
      objectReference: {fileID: 0}
    - target: {fileID: 4370666499921430, guid: 72c6824eaa143604aa7bca7bee6fd485, type: 2}
      propertyPath: m_LocalRotation.y
      value: -0
      objectReference: {fileID: 0}
    - target: {fileID: 4370666499921430, guid: 72c6824eaa143604aa7bca7bee6fd485, type: 2}
      propertyPath: m_LocalRotation.z
      value: -0
      objectReference: {fileID: 0}
    - target: {fileID: 4370666499921430, guid: 72c6824eaa143604aa7bca7bee6fd485, type: 2}
      propertyPath: m_LocalRotation.w
      value: 1
      objectReference: {fileID: 0}
    - target: {fileID: 4370666499921430, guid: 72c6824eaa143604aa7bca7bee6fd485, type: 2}
      propertyPath: m_RootOrder
      value: 2
      objectReference: {fileID: 0}
    - target: {fileID: 1015481927161066, guid: 72c6824eaa143604aa7bca7bee6fd485, type: 2}
      propertyPath: m_Name
      value: 3D_GizmoPrefab (1)
      objectReference: {fileID: 0}
    m_RemovedComponents: []
  m_ParentPrefab: {fileID: 100100000, guid: 72c6824eaa143604aa7bca7bee6fd485, type: 2}
  m_IsPrefabParent: 0
--- !u!1001 &398016727
Prefab:
  m_ObjectHideFlags: 0
  serializedVersion: 2
  m_Modification:
    m_TransformParent: {fileID: 577803702}
    m_Modifications:
    - target: {fileID: 4370666499921430, guid: 72c6824eaa143604aa7bca7bee6fd485, type: 2}
      propertyPath: m_LocalPosition.x
      value: 0
      objectReference: {fileID: 0}
    - target: {fileID: 4370666499921430, guid: 72c6824eaa143604aa7bca7bee6fd485, type: 2}
      propertyPath: m_LocalPosition.y
      value: 0
      objectReference: {fileID: 0}
    - target: {fileID: 4370666499921430, guid: 72c6824eaa143604aa7bca7bee6fd485, type: 2}
      propertyPath: m_LocalPosition.z
      value: 0
      objectReference: {fileID: 0}
    - target: {fileID: 4370666499921430, guid: 72c6824eaa143604aa7bca7bee6fd485, type: 2}
      propertyPath: m_LocalRotation.x
      value: -0
      objectReference: {fileID: 0}
    - target: {fileID: 4370666499921430, guid: 72c6824eaa143604aa7bca7bee6fd485, type: 2}
      propertyPath: m_LocalRotation.y
      value: -0
      objectReference: {fileID: 0}
    - target: {fileID: 4370666499921430, guid: 72c6824eaa143604aa7bca7bee6fd485, type: 2}
      propertyPath: m_LocalRotation.z
      value: -0
      objectReference: {fileID: 0}
    - target: {fileID: 4370666499921430, guid: 72c6824eaa143604aa7bca7bee6fd485, type: 2}
      propertyPath: m_LocalRotation.w
      value: 1
      objectReference: {fileID: 0}
    - target: {fileID: 4370666499921430, guid: 72c6824eaa143604aa7bca7bee6fd485, type: 2}
      propertyPath: m_RootOrder
      value: 2
      objectReference: {fileID: 0}
    - target: {fileID: 1015481927161066, guid: 72c6824eaa143604aa7bca7bee6fd485, type: 2}
      propertyPath: m_Name
      value: z
      objectReference: {fileID: 0}
    m_RemovedComponents: []
  m_ParentPrefab: {fileID: 100100000, guid: 72c6824eaa143604aa7bca7bee6fd485, type: 2}
  m_IsPrefabParent: 0
--- !u!1 &552409516
GameObject:
  m_ObjectHideFlags: 0
  m_PrefabParentObject: {fileID: 0}
  m_PrefabInternal: {fileID: 0}
  serializedVersion: 5
  m_Component:
  - component: {fileID: 552409518}
  - component: {fileID: 552409517}
  m_Layer: 0
  m_Name: Rotation
  m_TagString: Untagged
  m_Icon: {fileID: 0}
  m_NavMeshLayer: 0
  m_StaticEditorFlags: 0
  m_IsActive: 1
--- !u!114 &552409517
MonoBehaviour:
  m_ObjectHideFlags: 0
  m_PrefabParentObject: {fileID: 0}
  m_PrefabInternal: {fileID: 0}
  m_GameObject: {fileID: 552409516}
  m_Enabled: 1
  m_EditorHideFlags: 0
  m_Script: {fileID: 11500000, guid: 033d0adaa25470d479263bc7f50ef75e, type: 3}
  m_Name: 
  m_EditorClassIdentifier: 
  m_root: {fileID: 2089257679}
  m_angleOne: {x: -30, y: 0, z: 0}
  m_angleTwo: {x: 0, y: 45, z: 0}
  m_useCommutativity: 0
  m_angle: 0
  m_pourcent: 0
--- !u!4 &552409518
Transform:
  m_ObjectHideFlags: 0
  m_PrefabParentObject: {fileID: 0}
  m_PrefabInternal: {fileID: 0}
  m_GameObject: {fileID: 552409516}
  m_LocalRotation: {x: 0, y: 0, z: 0, w: 1}
  m_LocalPosition: {x: -6.47, y: 0.15767506, z: 0.7587445}
  m_LocalScale: {x: 1, y: 1, z: 1}
  m_Children:
  - {fileID: 2089257679}
  m_Father: {fileID: 0}
  m_RootOrder: 3
  m_LocalEulerAnglesHint: {x: 0, y: 0, z: 0}
--- !u!4 &577803702 stripped
Transform:
  m_PrefabParentObject: {fileID: 4370666499921430, guid: 72c6824eaa143604aa7bca7bee6fd485,
    type: 2}
  m_PrefabInternal: {fileID: 1402510873}
--- !u!1 &1328702556 stripped
GameObject:
  m_PrefabParentObject: {fileID: 1015481927161066, guid: 72c6824eaa143604aa7bca7bee6fd485,
    type: 2}
  m_PrefabInternal: {fileID: 351516707}
--- !u!4 &1328702557 stripped
Transform:
  m_PrefabParentObject: {fileID: 4370666499921430, guid: 72c6824eaa143604aa7bca7bee6fd485,
    type: 2}
  m_PrefabInternal: {fileID: 351516707}
--- !u!114 &1328702559
MonoBehaviour:
  m_ObjectHideFlags: 0
  m_PrefabParentObject: {fileID: 0}
  m_PrefabInternal: {fileID: 0}
  m_GameObject: {fileID: 1328702556}
  m_Enabled: 1
  m_EditorHideFlags: 0
  m_Script: {fileID: 11500000, guid: cc22f1567c53aca46aa63149383e4e46, type: 3}
  m_Name: 
  m_EditorClassIdentifier: 
  m_gizmo: {fileID: 1328702557}
  m_range: 1.08
  m_timeDisplay: 20
--- !u!1001 &1402510873
Prefab:
  m_ObjectHideFlags: 0
  serializedVersion: 2
  m_Modification:
    m_TransformParent: {fileID: 1549179639}
    m_Modifications:
    - target: {fileID: 4370666499921430, guid: 72c6824eaa143604aa7bca7bee6fd485, type: 2}
      propertyPath: m_LocalPosition.x
      value: 0
      objectReference: {fileID: 0}
    - target: {fileID: 4370666499921430, guid: 72c6824eaa143604aa7bca7bee6fd485, type: 2}
      propertyPath: m_LocalPosition.y
      value: 0
      objectReference: {fileID: 0}
    - target: {fileID: 4370666499921430, guid: 72c6824eaa143604aa7bca7bee6fd485, type: 2}
      propertyPath: m_LocalPosition.z
      value: 0.77
      objectReference: {fileID: 0}
    - target: {fileID: 4370666499921430, guid: 72c6824eaa143604aa7bca7bee6fd485, type: 2}
      propertyPath: m_LocalRotation.x
      value: -0
      objectReference: {fileID: 0}
    - target: {fileID: 4370666499921430, guid: 72c6824eaa143604aa7bca7bee6fd485, type: 2}
      propertyPath: m_LocalRotation.y
      value: -0
      objectReference: {fileID: 0}
    - target: {fileID: 4370666499921430, guid: 72c6824eaa143604aa7bca7bee6fd485, type: 2}
      propertyPath: m_LocalRotation.z
      value: -0
      objectReference: {fileID: 0}
    - target: {fileID: 4370666499921430, guid: 72c6824eaa143604aa7bca7bee6fd485, type: 2}
      propertyPath: m_LocalRotation.w
      value: 1
      objectReference: {fileID: 0}
    - target: {fileID: 4370666499921430, guid: 72c6824eaa143604aa7bca7bee6fd485, type: 2}
      propertyPath: m_RootOrder
      value: 2
      objectReference: {fileID: 0}
    - target: {fileID: 1015481927161066, guid: 72c6824eaa143604aa7bca7bee6fd485, type: 2}
      propertyPath: m_Name
      value: y
      objectReference: {fileID: 0}
    m_RemovedComponents: []
  m_ParentPrefab: {fileID: 100100000, guid: 72c6824eaa143604aa7bca7bee6fd485, type: 2}
  m_IsPrefabParent: 0
--- !u!1001 &1512249065
Prefab:
  m_ObjectHideFlags: 0
  serializedVersion: 2
  m_Modification:
    m_TransformParent: {fileID: 0}
    m_Modifications:
    - target: {fileID: 4370666499921430, guid: 72c6824eaa143604aa7bca7bee6fd485, type: 2}
      propertyPath: m_LocalPosition.x
      value: -0.010274909
      objectReference: {fileID: 0}
    - target: {fileID: 4370666499921430, guid: 72c6824eaa143604aa7bca7bee6fd485, type: 2}
      propertyPath: m_LocalPosition.y
      value: 0
      objectReference: {fileID: 0}
    - target: {fileID: 4370666499921430, guid: 72c6824eaa143604aa7bca7bee6fd485, type: 2}
      propertyPath: m_LocalPosition.z
      value: 1.0920134
      objectReference: {fileID: 0}
    - target: {fileID: 4370666499921430, guid: 72c6824eaa143604aa7bca7bee6fd485, type: 2}
      propertyPath: m_LocalRotation.x
      value: -0.24017069
      objectReference: {fileID: 0}
    - target: {fileID: 4370666499921430, guid: 72c6824eaa143604aa7bca7bee6fd485, type: 2}
      propertyPath: m_LocalRotation.y
      value: 0.4757438
      objectReference: {fileID: 0}
    - target: {fileID: 4370666499921430, guid: 72c6824eaa143604aa7bca7bee6fd485, type: 2}
      propertyPath: m_LocalRotation.z
      value: -0.15230916
      objectReference: {fileID: 0}
    - target: {fileID: 4370666499921430, guid: 72c6824eaa143604aa7bca7bee6fd485, type: 2}
      propertyPath: m_LocalRotation.w
      value: 0.8323388
      objectReference: {fileID: 0}
    - target: {fileID: 4370666499921430, guid: 72c6824eaa143604aa7bca7bee6fd485, type: 2}
      propertyPath: m_RootOrder
      value: 2
      objectReference: {fileID: 0}
    - target: {fileID: 1015481927161066, guid: 72c6824eaa143604aa7bca7bee6fd485, type: 2}
      propertyPath: m_Name
      value: x
      objectReference: {fileID: 0}
    - target: {fileID: 4370666499921430, guid: 72c6824eaa143604aa7bca7bee6fd485, type: 2}
      propertyPath: m_LocalEulerAnglesHint.y
      value: 63.466003
      objectReference: {fileID: 0}
    - target: {fileID: 4370666499921430, guid: 72c6824eaa143604aa7bca7bee6fd485, type: 2}
      propertyPath: m_LocalEulerAnglesHint.x
      value: -14.767001
      objectReference: {fileID: 0}
    - target: {fileID: 4370666499921430, guid: 72c6824eaa143604aa7bca7bee6fd485, type: 2}
      propertyPath: m_LocalEulerAnglesHint.z
      value: -29.903002
      objectReference: {fileID: 0}
    m_RemovedComponents: []
  m_ParentPrefab: {fileID: 100100000, guid: 72c6824eaa143604aa7bca7bee6fd485, type: 2}
  m_IsPrefabParent: 0
--- !u!4 &1549179639 stripped
Transform:
  m_PrefabParentObject: {fileID: 4370666499921430, guid: 72c6824eaa143604aa7bca7bee6fd485,
    type: 2}
  m_PrefabInternal: {fileID: 1512249065}
--- !u!1 &1695524459
GameObject:
  m_ObjectHideFlags: 0
  m_PrefabParentObject: {fileID: 0}
  m_PrefabInternal: {fileID: 0}
  serializedVersion: 5
  m_Component:
  - component: {fileID: 1695524463}
  - component: {fileID: 1695524462}
  - component: {fileID: 1695524461}
  - component: {fileID: 1695524460}
  m_Layer: 0
  m_Name: Main Camera
  m_TagString: MainCamera
  m_Icon: {fileID: 0}
  m_NavMeshLayer: 0
  m_StaticEditorFlags: 0
  m_IsActive: 1
--- !u!81 &1695524460
AudioListener:
  m_ObjectHideFlags: 0
  m_PrefabParentObject: {fileID: 0}
  m_PrefabInternal: {fileID: 0}
  m_GameObject: {fileID: 1695524459}
  m_Enabled: 1
--- !u!124 &1695524461
Behaviour:
  m_ObjectHideFlags: 0
  m_PrefabParentObject: {fileID: 0}
  m_PrefabInternal: {fileID: 0}
  m_GameObject: {fileID: 1695524459}
  m_Enabled: 1
--- !u!20 &1695524462
Camera:
  m_ObjectHideFlags: 0
  m_PrefabParentObject: {fileID: 0}
  m_PrefabInternal: {fileID: 0}
  m_GameObject: {fileID: 1695524459}
  m_Enabled: 1
  serializedVersion: 2
  m_ClearFlags: 1
  m_BackGroundColor: {r: 0.19215687, g: 0.3019608, b: 0.4745098, a: 0}
  m_NormalizedViewPortRect:
    serializedVersion: 2
    x: 0
    y: 0
    width: 1
    height: 1
  near clip plane: 0.3
  far clip plane: 1000
  field of view: 60
  orthographic: 0
  orthographic size: 5
  m_Depth: -1
  m_CullingMask:
    serializedVersion: 2
    m_Bits: 4294967295
  m_RenderingPath: -1
  m_TargetTexture: {fileID: 0}
  m_TargetDisplay: 0
  m_TargetEye: 3
  m_HDR: 1
  m_AllowMSAA: 1
  m_AllowDynamicResolution: 0
  m_ForceIntoRT: 0
  m_OcclusionCulling: 1
  m_StereoConvergence: 10
  m_StereoSeparation: 0.022
--- !u!4 &1695524463
Transform:
  m_ObjectHideFlags: 0
  m_PrefabParentObject: {fileID: 0}
  m_PrefabInternal: {fileID: 0}
  m_GameObject: {fileID: 1695524459}
  m_LocalRotation: {x: 0, y: 0, z: 0, w: 1}
  m_LocalPosition: {x: 0, y: 1, z: -10}
  m_LocalScale: {x: 1, y: 1, z: 1}
  m_Children: []
  m_Father: {fileID: 0}
  m_RootOrder: 0
  m_LocalEulerAnglesHint: {x: 0, y: 0, z: 0}
--- !u!1001 &1802091893
Prefab:
  m_ObjectHideFlags: 0
  serializedVersion: 2
  m_Modification:
    m_TransformParent: {fileID: 552409518}
    m_Modifications:
    - target: {fileID: 4370666499921430, guid: 72c6824eaa143604aa7bca7bee6fd485, type: 2}
      propertyPath: m_LocalPosition.x
      value: 0
      objectReference: {fileID: 0}
    - target: {fileID: 4370666499921430, guid: 72c6824eaa143604aa7bca7bee6fd485, type: 2}
      propertyPath: m_LocalPosition.y
      value: 0
      objectReference: {fileID: 0}
    - target: {fileID: 4370666499921430, guid: 72c6824eaa143604aa7bca7bee6fd485, type: 2}
      propertyPath: m_LocalPosition.z
      value: 0
      objectReference: {fileID: 0}
    - target: {fileID: 4370666499921430, guid: 72c6824eaa143604aa7bca7bee6fd485, type: 2}
      propertyPath: m_LocalRotation.x
      value: -0
      objectReference: {fileID: 0}
    - target: {fileID: 4370666499921430, guid: 72c6824eaa143604aa7bca7bee6fd485, type: 2}
      propertyPath: m_LocalRotation.y
      value: -0
      objectReference: {fileID: 0}
    - target: {fileID: 4370666499921430, guid: 72c6824eaa143604aa7bca7bee6fd485, type: 2}
      propertyPath: m_LocalRotation.z
      value: -0
      objectReference: {fileID: 0}
    - target: {fileID: 4370666499921430, guid: 72c6824eaa143604aa7bca7bee6fd485, type: 2}
      propertyPath: m_LocalRotation.w
      value: 1
      objectReference: {fileID: 0}
    - target: {fileID: 4370666499921430, guid: 72c6824eaa143604aa7bca7bee6fd485, type: 2}
      propertyPath: m_RootOrder
      value: 0
      objectReference: {fileID: 0}
    m_RemovedComponents: []
  m_ParentPrefab: {fileID: 100100000, guid: 72c6824eaa143604aa7bca7bee6fd485, type: 2}
  m_IsPrefabParent: 0
--- !u!4 &2089257679 stripped
Transform:
  m_PrefabParentObject: {fileID: 4370666499921430, guid: 72c6824eaa143604aa7bca7bee6fd485,
    type: 2}
  m_PrefabInternal: {fileID: 1802091893}
